{
  "products": [
    {
      "id": 0,
      "name": "Product Number 0",
      "image": "//imagens.pontofrio.com.br/Control/ArquivoExibir.aspx?IdArquivo=6747399",
      "oldPrice": 402,
      "price": 369,
      "description": "Product long description number 0 just to make more than one like of text.",
      "installments": {
        "count": 10,
        "value": 36.9
      }
    },
    {
      "id": 1,
      "name": "Product Number 1",
      "image": "//imagens.pontofrio.com.br/Control/ArquivoExibir.aspx?IdArquivo=6584703",
      "oldPrice": 111,
      "price": 74,
      "description": "Product long description number 1 just to make more than one like of text.",
      "installments": {
        "count": 10,
        "value": 7.4
      }
    },
    {
      "id": 2,
      "name": "Product Number 2",
      "image": "//imagens.pontofrio.com.br/Control/ArquivoExibir.aspx?IdArquivo=6624363",
      "oldPrice": 366,
      "price": 332,
      "description": "Product long description number 2 just to make more than one like of text.",
      "installments": {
        "count": 10,
        "value": 33.2
      }
    },
    {
      "id": 3,
      "name": "Product Number 3",
      "image": "//imagens.pontofrio.com.br/Control/ArquivoExibir.aspx?IdArquivo=6829307",
      "oldPrice": 164,
      "price": 137,
      "description": "Product long description number 3 just to make more than one like of text.",
      "installments": {
        "count": 10,
        "value": 13.7
      }
    },
    {
      "id": 4,
      "name": "Product Number 4",
      "image": "//imagens.pontofrio.com.br/Control/ArquivoExibir.aspx?IdArquivo=6747399",
      "oldPrice": 149,
      "price": 130,
      "description": "Product long description number 4 just to make more than one like of text.",
      "installments": {
        "count": 10,
        "value": 13
      }
    },
    {
      "id": 5,
      "name": "Product Number 5",
      "image": "//imagens.pontofrio.com.br/Control/ArquivoExibir.aspx?IdArquivo=6829158",
      "oldPrice": 439,
      "price": 411,
      "description": "Product long description number 5 just to make more than one like of text.",
      "installments": {
        "count": 10,
        "value": 41.1
      }
    },
    {
      "id": 6,
      "name": "Product Number 6",
      "image": "//imagens.pontofrio.com.br/Control/ArquivoExibir.aspx?IdArquivo=6747399",
      "oldPrice": 441,
      "price": 417,
      "description": "Product long description number 6 just to make more than one like of text.",
      "installments": {
        "count": 10,
        "value": 41.7
      }
    },
    {
      "id": 7,
      "name": "Product Number 7",
      "image": "//imagens.pontofrio.com.br/Control/ArquivoExibir.aspx?IdArquivo=6124117",
      "oldPrice": 100,
      "price": 51,
      "description": "Product long description number 7 just to make more than one like of text.",
      "installments": {
        "count": 10,
        "value": 5.1
      }
    }
  ],
  "nextPage": "frontend-intern-challenge-api.iurykrieger.vercel.app/products?page=2"
}
